﻿消息记录（此消息记录为文本格式，不支持重新导入）

================================================================
消息分组:最近联系人
================================================================
消息对象:舒二人
================================================================

2014-02-28 11:54:46 Fadetunes
http://gamecenter.qq.com/gcjump?plat=qq&pf=invite&appid=1101070777&platformdata=1393606463792-1039-346-363-7

2014-02-28 11:59:50 Fadetunes
http://gamecenter.qq.com/gcjump?plat=qq&pf=invite&appid=1101070777

2014-02-28 12:01:41 舒二人
http://gamecenter.qq.com/gcjump?plat=qq&pf=invite&appid=1101070777

2014-07-14 21:48:31 舒二人
你居然在线。。。

2014-07-14 21:48:38 舒二人
快点把你有用的托福的东西都发给我

2014-07-14 22:29:41 Fadetunes
好的，等我回去

2014-08-10 22:47:54 Fadetunes
在么在么

2014-08-10 22:48:03 Fadetunes
I need help

2014-08-10 22:49:31 舒二人
?

2014-08-10 22:49:56 Fadetunes
上微信，给我发六个数字 659588

2014-08-10 22:50:00 Fadetunes
二次验证 速度

2014-08-10 22:51:39  
[图片]您发送了一个窗口抖动。

2014-08-10 22:51:44 舒二人
额。发了啊

2014-08-10 22:56:23 Fadetunes
找个符合要求的真费劲

2014-08-10 22:56:37 Fadetunes
你问问王姐睡了没。。

2014-08-10 22:56:43 Fadetunes
也帮我发一个吧。。

2014-08-10 22:57:25 Fadetunes
或者给宽哥发短信让给我发一个

2014-08-10 22:57:33 Fadetunes
659588

2014-08-10 22:58:03 Fadetunes
？

2014-08-10 22:58:04  
[图片]您发送了一个窗口抖动。

2014-08-10 22:58:25 舒二人
额。。

2014-08-10 22:58:29 舒二人
什么意思- -

2014-08-10 22:58:32  
[图片]您发送了一个窗口抖动。

2014-08-10 22:58:40 舒二人
为什么会睡了没。。

2014-08-10 22:58:50 Fadetunes
。。。。

2014-08-10 22:58:57 Fadetunes
好吧。。

2014-08-10 22:59:00 Fadetunes
那更好。。

2014-08-10 22:59:04 舒二人
你是不记得有时差了么

2014-08-10 22:59:12 Fadetunes
嗯[表情]

2014-08-10 22:59:18 舒二人
二步验证有那么麻烦么。。。

2014-08-10 22:59:19 舒二人
- -

2014-08-10 22:59:25 Fadetunes
有。。

2014-08-10 22:59:46 舒二人
到底要干吗。。。

2014-08-10 22:59:56 Fadetunes
需要QQ帐号注册的微信号还得至少三个人

2014-08-10 23:00:17 Fadetunes
你就帮我整整就完了，我手机坏了

2014-08-10 23:00:36 Fadetunes
老况也行

2014-08-10 23:00:42 舒二人
额。我们要干嘛。。

2014-08-10 23:01:09 Fadetunes
就用微信发 659588 给我就行

2014-08-10 23:02:21 Fadetunes
手机坏了打不开，网页登录需要用手机扫描二维码，用别人手机登陆要二次验证，不能给自己手机发短信验证就只能这么扯淡了。。

2014-08-10 23:02:30 Fadetunes
[表情]

2014-08-10 23:02:48 舒二人
不能把sim卡拔了插别人手机上么。。。

2014-08-10 23:03:02 Fadetunes
不能

2014-08-10 23:03:08 舒二人
为什么

2014-08-10 23:03:16 Fadetunes
绑定手机，不是号码

2014-08-10 23:03:24 舒二人
。。。

2014-08-10 23:03:29 Fadetunes
再者都尼玛小卡

2014-08-10 23:03:31 舒二人
作。。

2014-08-10 23:03:42 Fadetunes
你就快点吧！

2014-08-10 23:03:56 Fadetunes
发信息了没？

2014-08-10 23:04:07 舒二人
发了好多人了。

2014-08-10 23:04:11 舒二人
没人理我而已。。

2014-08-10 23:10:35 舒二人
应该凑了三个人了啊。。

2014-08-10 23:10:36 舒二人
- -

2014-08-10 23:10:37 舒二人
能行了么

2014-08-10 23:11:36  
[图片]舒二人给您发送了一个窗口抖动。

2014-08-10 23:11:38 舒二人
你妹啊。

2014-08-10 23:11:41 舒二人
行不行说个话。。

2014-08-10 23:11:46 Fadetunes
好了，可以了

2014-08-10 23:11:49 Fadetunes
。。

2014-08-10 23:11:55 舒二人
[表情]

2014-08-10 23:12:03 Fadetunes
辛苦了[表情]

2014-08-10 23:12:28 Fadetunes
但是好几个都是不在名单里的。。

2014-08-10 23:12:35 Fadetunes
刘博，全儿。。

2014-08-10 23:12:39 舒二人
额。。

2014-08-10 23:12:42 舒二人
什么名单。。

2014-08-10 23:12:56 Fadetunes
QQ好友账户的微信才可以。。

2014-08-10 23:13:04 舒二人
额。

2014-08-10 23:13:12 Fadetunes
不过已经够了，就差一个~

2014-08-10 23:13:18 Fadetunes
多谢多谢~

2014-08-10 23:13:19 舒二人
刘博怎么不是QQ好友[表情]

2014-08-10 23:13:40 Fadetunes
他可能是用手机号注册的微信号吧

2014-08-10 23:58:22 舒二人
soga ..

2014-08-10 23:58:28 舒二人
你还不睡么

2015-01-27 11:02:15 舒二人
[表情][表情][表情]

2015-01-27 11:02:34 舒二人
你停不了课怪我干嘛[表情][表情][表情]

2015-01-27 11:03:41 Fadetunes
[图片]

